<?xml version="1.0" standalone="no"?>
<!DOCTYPE svg PUBLIC "-//W3C//DTD SVG 1.1//EN" "http://www.w3.org/Graphics/SVG/1.1/DTD/svg11.dtd" >
<svg xmlns="http://www.w3.org/2000/svg">
<metadata>
This is a custom SVG webfont generated by Font Squirrel.
</metadata>
<defs>
<font id="webfontMcpcWhnt" horiz-adv-x="560" >
<font-face units-per-em="1000" ascent="815" descent="-185" />
<missing-glyph horiz-adv-x="280" />
<glyph unicode=" "  horiz-adv-x="280" />
<glyph unicode="&#x09;" horiz-adv-x="280" />
<glyph unicode="&#xa0;" horiz-adv-x="280" />
<glyph unicode="!" horiz-adv-x="280" d="M210 188h-133l102 551h133zM199 128l-24 -128h-133l24 128h133z" />
<glyph unicode="&#x22;" horiz-adv-x="360" d="M390 739l-42 -226h-76l42 226h76zM257 739l-42 -226h-76l42 226h76z" />
<glyph unicode="#" d="M575 422h-103l-28 -89h88l-19 -100h-102l-75 -233h-91l76 233h-84l-75 -233h-91l75 233h-99l19 100h111l29 89h-95l18 100h109l70 217h91l-70 -217h84l70 217h89l-69 -217h90zM381 422h-84l-29 -89h85z" />
<glyph unicode="$" d="M515 308q0 -95 -50.5 -164.5t-139.5 -97.5l-24 -132h-127l24 132q-61 16 -94.5 59t-33.5 102q0 19 5 42h134q-2 -18 -2 -21q0 -27 20 -46t48 -19q42 0 72.5 30t30.5 72q0 29 -28 51q-17 13 -96 45q-100 40 -100 137q0 77 46 142.5t124 82.5l24 133h127l-24 -133 q44 -11 69 -50t25 -84q0 -14 -3 -38h-126q0 29 -13.5 45.5t-37.5 16.5q-31 0 -52.5 -23t-21.5 -55q0 -30 18 -46q13 -11 31.5 -20t86.5 -36q88 -35 88 -125z" />
<glyph unicode="%" horiz-adv-x="860" d="M738 739l-443 -739h-102l442 739h103zM838 201q0 -85 -67 -149.5t-154 -64.5q-62 0 -104.5 42t-42.5 104q0 85 66 150t152 65q64 0 107 -42t43 -105zM730 183q0 24 -18.5 41.5t-44.5 17.5q-35 0 -62 -26.5t-27 -61.5q0 -26 17.5 -43t43.5 -17q35 0 63 27.5t28 61.5z M462 605q0 -84 -67 -149t-153 -65q-64 0 -106 42.5t-42 106.5q0 83 66.5 147.5t151.5 64.5q64 0 107 -42t43 -105zM354 585q0 26 -18 43.5t-45 17.5q-33 0 -61 -26.5t-28 -57.5q0 -29 17 -46.5t46 -17.5q34 0 61.5 27t27.5 60z" />
<glyph unicode="&#x26;" horiz-adv-x="680" d="M648 72l-111 -85l-84 111q-58 -63 -103.5 -87t-104.5 -24q-90 0 -147 53.5t-57 138.5q0 159 184 254q-25 34 -33 54t-8 47q0 86 67.5 152t155.5 66q70 0 115.5 -40t45.5 -101q0 -70 -32 -120t-121 -102l54 -76l93 120h149l-169 -220zM438 584q0 18 -14.5 30.5t-36.5 12.5 q-30 0 -52.5 -22.5t-22.5 -52.5q0 -29 37 -71l8 4q81 32 81 99zM379 198l-92 124q-63 -27 -87.5 -57.5t-24.5 -66.5t23 -57.5t62 -21.5q65 0 119 79z" />
<glyph unicode="'" horiz-adv-x="220" d="M257 739l-42 -226h-76l42 226h76z" />
<glyph unicode="(" horiz-adv-x="380" d="M456 739l-27 -144q-96 -68 -148 -163t-52 -203q0 -68 25.5 -130t65.5 -91l-27 -145q-85 29 -143 126.5t-58 222.5q0 104 50 216.5t132 194.5q40 40 79.5 65t102.5 51z" />
<glyph unicode=")" horiz-adv-x="380" d="M347 395q0 -168 -100 -316.5t-264 -215.5l27 144q95 67 147.5 164t52.5 205q0 65 -26 127.5t-66 90.5l27 145q88 -31 145 -128t57 -216z" />
<glyph unicode="*" horiz-adv-x="440" d="M460 591l-13 -70l-96 22l38 -91l-65 -27l-30 96l-60 -79l-58 42l70 80l-100 11l13 71l98 -23l-37 96l69 20l28 -93l60 77l54 -47l-69 -73z" />
<glyph unicode="+" horiz-adv-x="600" d="M569 181h-177v-177h-138v177h-177v138h177v177h138v-177h177v-138z" />
<glyph unicode="," horiz-adv-x="280" d="M175 -7q-11 -59 -53 -96t-94 -37h-11l12 67q70 9 72 73h-58l24 128h133z" />
<glyph unicode="-" horiz-adv-x="420" d="M391 347l-22 -118h-277l22 118h277z" />
<glyph unicode="." horiz-adv-x="280" d="M200 128l-24 -128h-134l24 128h134z" />
<glyph unicode="/" horiz-adv-x="460" d="M550 739l-483 -867h-95l484 867h94z" />
<glyph unicode="0" d="M587 505l-48 -258q-23 -124 -101 -192t-187 -68q-100 0 -156.5 52.5t-56.5 145.5q0 31 6 62l47 251q22 117 100.5 185.5t191.5 68.5q96 0 153 -50t57 -135q0 -31 -6 -62zM453 498q4 19 4 42q0 43 -25 66.5t-69 23.5q-53 0 -90.5 -35.5t-48.5 -96.5l-46 -247 q-4 -19 -4 -44q0 -98 97 -98q109 0 135 138z" />
<glyph unicode="1" d="M486 739l-137 -739h-133l114 614h-93l23 125h226z" />
<glyph unicode="2" d="M487 0h-475l22 117l306 249q59 48 85.5 88.5t26.5 83.5q0 41 -23 66.5t-61 25.5q-106 0 -143 -146h-131q14 64 28 96.5t40 63.5q43 52 102.5 80t124.5 28q89 0 144.5 -53t55.5 -138t-41 -149t-152 -150l-177 -137h291z" />
<glyph unicode="3" d="M535 286q0 -123 -88.5 -211t-212.5 -88q-93 0 -152 56t-59 141q0 14 3 40h134v-7q0 -50 26 -79t71 -29q58 0 99.5 46t41.5 100q0 44 -31.5 72.5t-90.5 28.5h-23l24 128q66 1 96.5 23.5t30.5 67.5q0 26 -13.5 40.5t-36.5 14.5q-58 0 -75 -67h-135q23 89 86.5 139t144.5 50 q75 0 120.5 -44t45.5 -117q0 -110 -89 -165q44 -25 63.5 -57.5t19.5 -82.5z" />
<glyph unicode="4" d="M543 229l-22 -118h-78l-21 -111h-133l21 111h-320l20 107l437 521h112l-94 -510h78zM332 229l53 286l-237 -286h184z" />
<glyph unicode="5" d="M540 298q0 -122 -91.5 -216.5t-214.5 -94.5q-90 0 -152 58.5t-62 137.5q0 13 3 38h133q0 -54 26 -83t74 -29q60 0 103.5 50.5t43.5 115.5q0 46 -27 74t-71 28q-56 0 -112 -56l-112 32l141 386h334l-23 -125h-234l-50 -136q60 21 101 21q87 0 138.5 -54.5t51.5 -146.5z " />
<glyph unicode="6" d="M554 302q0 -121 -91 -218t-217 -97q-92 0 -153 57t-61 140q0 131 114 265l247 290h159l-226 -263q31 10 63 10q77 0 121 -51t44 -133zM417 267q0 46 -27.5 74t-72.5 28q-62 0 -105 -46.5t-43 -113.5q0 -46 27.5 -73t74.5 -27q59 0 102.5 47t43.5 111z" />
<glyph unicode="7" d="M584 614l-380 -614h-149l388 614h-293l23 125h434z" />
<glyph unicode="8" d="M537 274q0 -113 -88.5 -200t-204.5 -87q-93 0 -149 55.5t-56 147.5q0 67 37 128t104 93q-38 52 -38 102q0 93 75 166t171 73q72 0 118 -44t46 -113q0 -54 -22.5 -103.5t-67.5 -80.5q41 -26 58 -56.5t17 -80.5zM424 565q0 31 -16 48t-45 17q-36 0 -64.5 -30t-28.5 -68 q0 -26 18 -44.5t44 -18.5q36 0 64 29t28 67zM400 247q0 41 -25.5 67.5t-65.5 26.5q-52 0 -92.5 -42t-40.5 -96q0 -43 25.5 -68.5t66.5 -25.5q52 0 92 42t40 96z" />
<glyph unicode="9" d="M598 554q0 -130 -114 -264l-247 -290h-159l227 263q-35 -12 -63 -12q-74 0 -119 51t-45 135q0 122 91 218.5t215 96.5q94 0 154 -56t60 -142zM461 530q0 45 -28 72.5t-73 27.5q-62 0 -103.5 -49.5t-41.5 -111.5q0 -44 27.5 -72.5t70.5 -28.5q62 0 105 47t43 115z" />
<glyph unicode=":" horiz-adv-x="280" d="M200 128l-24 -128h-134l24 128h134zM268 502l-24 -128h-134l24 128h134z" />
<glyph unicode=";" horiz-adv-x="280" d="M268 502l-24 -128h-134l24 128h134zM175 -7q-11 -59 -53 -96t-94 -37h-11l12 67q70 9 72 73h-58l24 128h133z" />
<glyph unicode="&#x3c;" horiz-adv-x="600" d="M515 -142l-427 338v108l427 338v-176l-273 -216l273 -216v-176z" />
<glyph unicode="=" horiz-adv-x="600" d="M569 273h-492v138h492v-138zM569 89h-492v138h492v-138z" />
<glyph unicode="&#x3e;" horiz-adv-x="600" d="M515 196l-427 -338v176l273 216l-273 216v176l427 -338v-108z" />
<glyph unicode="?" d="M556 568q0 -73 -40 -131q-25 -35 -100 -93q-48 -38 -65.5 -67t-27.5 -90h-133q18 97 49.5 145.5t117.5 109.5q62 45 62 104q0 33 -22 53.5t-57 20.5q-79 0 -108 -100h-133q25 106 99.5 169t172.5 63q82 0 133.5 -51t51.5 -133zM289 0h-133l23 128h133z" />
<glyph unicode="@" horiz-adv-x="740" d="M801 483q0 -141 -76 -235t-190 -94q-82 0 -90 54q-47 -54 -125 -54q-61 0 -97 37t-36 101q0 115 75 200t176 85q75 0 106 -58l17 54h97l-89 -295q-4 -16 -4 -25q0 -16 24 -16q51 0 97.5 75t46.5 164q0 99 -65.5 158t-175.5 59q-159 0 -274.5 -114.5t-115.5 -271.5 q0 -109 77 -178t201 -69q84 0 162 47l35 -60q-56 -34 -101.5 -47t-107.5 -13q-151 0 -242.5 87t-91.5 220q0 125 63.5 234t171.5 173.5t231 64.5q135 0 218 -74t83 -209zM498 398q0 32 -15.5 49.5t-44.5 17.5q-50 0 -88.5 -41.5t-38.5 -95.5q0 -32 17 -50t48 -18q48 0 85 42 t37 96z" />
<glyph unicode="A" horiz-adv-x="740" d="M703 0h-151l-44 191h-263l-117 -191h-151l445 739h108zM478 323l-38 223l-120 -223h158z" />
<glyph unicode="B" horiz-adv-x="580" d="M563 264q0 -115 -87 -189.5t-241 -74.5h-197l137 739h153q84 0 123 -7t68 -28q58 -43 58 -124q0 -126 -110 -177q52 -22 74 -54t22 -85zM423 241q0 42 -29.5 60.5t-94.5 18.5h-65l-35 -188h68q156 0 156 109zM437 549q0 58 -94 58h-56l-28 -153h44q134 0 134 95z" />
<glyph unicode="C" horiz-adv-x="780" d="M828 527h-154q-29 50 -70.5 71.5t-105.5 21.5q-114 0 -205 -87.5t-91 -205.5q0 -91 58 -149.5t147 -58.5q54 0 99 19.5t101 67.5h161q-60 -100 -164.5 -159.5t-218.5 -59.5q-142 0 -232.5 89.5t-90.5 226.5q0 114 64.5 218t170.5 167.5t221 63.5q114 0 197 -57.5 t113 -167.5z" />
<glyph unicode="D" horiz-adv-x="700" d="M704 452q0 -111 -52 -215t-137 -163q-57 -40 -127.5 -57t-177.5 -17h-172l137 739h169q191 0 275.5 -72t84.5 -215zM564 421q0 96 -55.5 141.5t-193.5 45.5h-27l-89 -477h30q92 0 150 19t100 62q85 88 85 209z" />
<glyph unicode="E" horiz-adv-x="520" d="M548 607h-260l-33 -172h249l-24 -132h-249l-32 -171h260l-24 -132h-397l137 739h397z" />
<glyph unicode="F" horiz-adv-x="480" d="M527 607h-239l-33 -172h228l-24 -132h-228l-56 -303h-137l137 739h376z" />
<glyph unicode="G" horiz-adv-x="840" d="M858 377q-10 -100 -77 -190.5t-169.5 -145t-211.5 -54.5q-149 0 -244 88t-95 225q0 116 65.5 221t174 168t228.5 63t211 -67t108 -163h-161q-60 98 -180 98q-125 0 -215.5 -89.5t-90.5 -206.5q0 -90 59.5 -147.5t157.5 -57.5q72 0 135.5 34.5t104.5 95.5h-306l24 128h482 z" />
<glyph unicode="H" horiz-adv-x="680" d="M713 739l-137 -739h-137l57 310h-264l-57 -310h-137l137 739h137l-55 -297h264l55 297h137z" />
<glyph unicode="I" horiz-adv-x="280" d="M312 739l-137 -739h-137l137 739h137z" />
<glyph unicode="J" horiz-adv-x="480" d="M521 739l-98 -527q-21 -109 -87 -167t-154 -58q-77 0 -125.5 43t-48.5 110q0 7 2 35h137l1 -7q7 -49 55 -49q66 0 84 97l97 523h137z" />
<glyph unicode="K" horiz-adv-x="620" d="M706 739l-344 -363l207 -376h-164l-170 325l-60 -325h-137l137 739h137l-59 -319l289 319h164z" />
<glyph unicode="L" horiz-adv-x="440" d="M402 0h-364l137 739h137l-113 -607h227z" />
<glyph unicode="M" horiz-adv-x="900" d="M947 739l-137 -739h-137l103 554l-296 -554h-112l-90 554l-103 -554h-137l137 739h188l95 -560l301 560h188z" />
<glyph unicode="N" horiz-adv-x="740" d="M774 739l-137 -739h-153l-209 537l-100 -537h-137l137 739h156l206 -538l100 538h137z" />
<glyph unicode="O" horiz-adv-x="840" d="M845 439q0 -117 -63.5 -221.5t-170 -167.5t-225.5 -63q-142 0 -233.5 88t-91.5 225q0 118 67 223.5t175.5 167t225.5 61.5q138 0 227 -88t89 -225zM705 419q0 88 -57 144.5t-146 56.5q-117 0 -209 -90.5t-92 -206.5q0 -89 59 -146.5t150 -57.5q116 0 205.5 89.5 t89.5 210.5z" />
<glyph unicode="P" d="M609 562q0 -57 -24 -114.5t-64 -95.5q-46 -43 -95 -57t-155 -14h-44l-52 -281h-137l137 739h183q134 0 182 -34q69 -49 69 -143zM469 529q0 44 -26.5 61t-108.5 17h-46l-37 -195h40q86 0 132 27t46 90z" />
<glyph unicode="Q" horiz-adv-x="840" d="M818 110l-23 -124q-10 -1 -24 -1q-47 0 -79.5 12t-78.5 48q-106 -58 -218 -58q-144 0 -239 89t-95 223q0 118 65.5 223t174 167.5t230.5 62.5q146 0 237 -85t91 -222q0 -194 -140 -316q34 -22 69 -22q10 0 30 3zM514 138q-97 97 -219 97q-30 0 -73 -8q62 -108 196 -108 q47 0 96 19zM719 418q0 90 -59 146t-154 56q-117 0 -206.5 -81t-99.5 -205q49 13 123 13q173 0 301 -143q44 36 69.5 93t25.5 121z" />
<glyph unicode="R" horiz-adv-x="580" d="M538 0h-169l-142 283l-52 -283h-137l137 739h213q239 0 239 -186q0 -104 -61.5 -178t-176.5 -102zM487 521q0 46 -29.5 66t-108.5 20h-61l-41 -221h67q91 0 132 37.5t41 97.5z" />
<glyph unicode="S" horiz-adv-x="520" d="M508 265q0 -109 -86 -193.5t-196 -84.5q-93 0 -150 51.5t-57 132.5q0 8 2 40h143q-1 -8 -1 -21q0 -33 22.5 -52t62.5 -19q50 0 85 31.5t35 76.5q0 38 -22 57q-15 12 -32 20.5t-86 36.5q-121 48 -121 165q0 97 77.5 171.5t177.5 74.5q80 0 133.5 -46.5t53.5 -116.5 q0 -22 -4 -47h-141q0 44 -15.5 61t-50.5 17q-38 0 -64.5 -27t-26.5 -64q0 -29 30 -51q15 -11 76 -33q83 -31 119 -73t36 -107z" />
<glyph unicode="T" horiz-adv-x="420" d="M501 607h-139l-113 -607h-137l113 607h-136l24 132h412z" />
<glyph unicode="U" horiz-adv-x="640" d="M588 271q-25 -136 -107.5 -210t-195.5 -74q-89 0 -147.5 53.5t-58.5 135.5q0 44 10 95l86 468h137l-86 -468q-9 -48 -9 -70q0 -34 27 -58t65 -24q113 0 142 152l86 468h137z" />
<glyph unicode="V" horiz-adv-x="700" d="M801 739l-423 -739h-112l-151 739h144l95 -562l303 562h144z" />
<glyph unicode="W" horiz-adv-x="900" d="M1005 739l-353 -739h-109l-28 489l-213 -489h-108l-80 739h140l34 -516l222 516h100l28 -516l227 516h140z" />
<glyph unicode="X" horiz-adv-x="680" d="M783 739l-325 -371l188 -368h-159l-130 255l-219 -255h-163l322 368l-185 371h163l124 -258l225 258h159z" />
<glyph unicode="Y" horiz-adv-x="620" d="M733 739l-329 -466l-51 -273h-137l51 273l-157 466h148l100 -340l227 340h148z" />
<glyph unicode="Z" horiz-adv-x="500" d="M450 0h-462l21 117l372 490h-265l24 132h428l-23 -124l-368 -483h297z" />
<glyph unicode="[" horiz-adv-x="320" d="M237 -137q-79 19 -123 75.5t-44 134.5q0 53 11 114l48 259q20 115 89.5 190.5t180.5 102.5l-27 -147q-51 -19 -74.5 -56t-38.5 -117l-48 -255q-5 -30 -5 -56q0 -40 12.5 -61t45.5 -37z" />
<glyph unicode="\" horiz-adv-x="640" d="M473 0h-96l-186 739h96z" />
<glyph unicode="]" horiz-adv-x="320" d="M257 156q-22 -118 -91.5 -193t-182.5 -100l27 147q52 17 76.5 54t40.5 119l48 255q5 30 5 56q0 41 -13 61.5t-49 36.5l27 147q81 -15 126 -72.5t45 -137.5q0 -53 -11 -114z" />
<glyph unicode="^" horiz-adv-x="600" d="M580 358l-115 -33l-83 270l-184 -271l-98 55l245 371h121z" />
<glyph unicode="_" horiz-adv-x="500" d="M445 -138h-501l16 90h501z" />
<glyph unicode="`" horiz-adv-x="420" d="M401 691l-73 -88l-200 116l84 99z" />
<glyph unicode="a" horiz-adv-x="660" d="M586 0h-122l13 72q-89 -85 -200 -85q-105 0 -168.5 62t-63.5 164q0 145 102 249.5t243 104.5q116 0 163 -87l13 74h122zM514 313q0 61 -36 96.5t-98 35.5q-80 0 -139 -61.5t-59 -143.5q0 -60 36.5 -95.5t98.5 -35.5q83 0 140 58.5t57 145.5z" />
<glyph unicode="b" horiz-adv-x="660" d="M665 343q0 -145 -99.5 -250.5t-226.5 -105.5q-63 0 -101.5 17.5t-78.5 66.5l-13 -71h-122l137 739h133l-44 -236q48 39 90 55t100 16q98 0 161.5 -65t63.5 -166zM528 314q0 63 -36 100.5t-97 37.5q-82 0 -140 -62t-58 -149q0 -59 37.5 -95.5t97.5 -36.5q80 0 138 60.5 t58 144.5z" />
<glyph unicode="c" horiz-adv-x="640" d="M640 369h-150q-23 76 -113 76q-79 0 -136 -59t-57 -141q0 -62 36 -99t95 -37q86 0 140 73h150q-53 -94 -133.5 -144.5t-177.5 -50.5q-106 0 -176.5 67.5t-70.5 168.5q0 136 106 240t244 104q95 0 160.5 -50.5t82.5 -147.5z" />
<glyph unicode="d" horiz-adv-x="660" d="M720 739l-137 -739h-122l14 72q-91 -85 -199 -85q-104 0 -167 64t-63 169q0 141 102.5 247.5t237.5 106.5q51 0 93.5 -18.5t64.5 -50.5l43 234h133zM516 314q0 62 -36.5 100t-96.5 38q-81 0 -140.5 -60.5t-59.5 -143.5q0 -62 38.5 -100.5t99.5 -38.5q76 0 135.5 62.5 t59.5 142.5z" />
<glyph unicode="e" horiz-adv-x="640" d="M615 218h-429q0 -48 36.5 -78.5t93.5 -30.5q80 0 135 55h145q-45 -82 -125 -129.5t-174 -47.5q-111 0 -181 66t-70 170q0 136 106.5 240t245.5 104q104 0 170.5 -63t66.5 -162q0 -76 -20 -124zM511 336q-6 109 -134 109q-58 0 -106 -30t-67 -79h307z" />
<glyph unicode="f" horiz-adv-x="280" d="M383 737l-24 -126h-18q-71 0 -80 -67h78l-21 -111h-78l-80 -433h-133l80 433h-48l21 111h48q26 99 83.5 147t132.5 48q17 0 39 -2z" />
<glyph unicode="g" horiz-adv-x="660" d="M601 105q-60 -326 -349 -326q-204 0 -252 176h151q23 -32 52.5 -45.5t76.5 -13.5q73 0 118.5 42t69.5 135q-48 -46 -93 -66t-104 -20q-103 0 -164 62.5t-61 167.5q0 143 99.5 246.5t235.5 103.5q58 0 96.5 -19.5t66.5 -63.5l13 70h127zM504 315q0 59 -36 94.5t-95 35.5 q-83 0 -136.5 -60t-53.5 -152q0 -58 34 -91t94 -33q83 0 138 61t55 145z" />
<glyph unicode="h" horiz-adv-x="600" d="M515 0h-133l52 283q9 48 9 81q0 39 -23 60.5t-64 21.5q-59 0 -94.5 -37t-52.5 -128l-52 -281h-133l137 739h133l-41 -223q62 52 149 52q82 0 131.5 -43.5t49.5 -116.5q0 -44 -10 -95z" />
<glyph unicode="i" horiz-adv-x="240" d="M260 554l-103 -554h-133l103 554h133zM300 766l-25 -132h-133l25 132h133z" />
<glyph unicode="j" horiz-adv-x="260" d="M278 554l-96 -517q-17 -103 -77 -161.5t-152 -60.5l24 129q38 7 50.5 24t22.5 72l95 514h133zM318 766l-25 -132h-133l25 132h133z" />
<glyph unicode="k" horiz-adv-x="580" d="M525 0h-179l-141 259l-48 -259h-133l137 739h133l-83 -446l225 261h159l-248 -271z" />
<glyph unicode="l" horiz-adv-x="240" d="M294 739l-137 -739h-133l137 739h133z" />
<glyph unicode="m" horiz-adv-x="940" d="M855 0h-133l56 304q7 44 7 67q0 32 -23 53t-60 21q-59 0 -92.5 -36t-52.5 -136l-51 -273h-133l56 304q7 40 7 55q0 86 -88 86q-59 0 -90.5 -36.5t-49.5 -135.5l-51 -273h-133l103 554h122l-10 -52q65 65 158 65q109 0 145 -86q77 86 195 86q88 0 136.5 -43.5t48.5 -121.5 q0 -36 -8 -82z" />
<glyph unicode="n" horiz-adv-x="600" d="M516 0h-133l50 271q9 50 9 92q0 82 -84 82q-59 0 -96 -38.5t-57 -145.5l-48 -261h-133l103 554h123l-10 -53q46 37 82.5 51.5t82.5 14.5q86 0 132 -42.5t46 -121.5q0 -40 -12 -106z" />
<glyph unicode="o" horiz-adv-x="640" d="M645 327q0 -134 -108 -237t-249 -103q-103 0 -172.5 67t-69.5 167q0 137 107 241.5t248 104.5q106 0 175 -68t69 -172zM508 309q0 59 -37 97.5t-93 38.5q-76 0 -135.5 -61t-59.5 -140q0 -58 37.5 -96.5t94.5 -38.5q75 0 134 61.5t59 138.5z" />
<glyph unicode="p" horiz-adv-x="660" d="M661 344q0 -147 -98.5 -252t-237.5 -105q-99 0 -158 65l-44 -237h-133l137 739h122l-12 -65q35 37 87 57.5t108 20.5q101 0 165 -60.5t64 -162.5zM524 309q0 58 -35.5 97t-95.5 39q-79 0 -137.5 -61t-58.5 -143q0 -57 38.5 -94.5t97.5 -37.5q74 0 132.5 61.5t58.5 138.5z " />
<glyph unicode="q" horiz-adv-x="660" d="M684 554l-137 -739h-133l44 238q-75 -66 -182 -66q-102 0 -165.5 65.5t-63.5 170.5q0 136 102.5 240t236.5 104q120 0 162 -84l14 71h122zM510 307q0 62 -35.5 100t-94.5 38q-80 0 -138 -60t-58 -142q0 -62 35.5 -98t96.5 -36q77 0 135.5 59.5t58.5 138.5z" />
<glyph unicode="r" horiz-adv-x="320" d="M382 567l-24 -128q-59 -1 -97.5 -36t-46.5 -95l-57 -308h-133l103 554h122l-10 -54q32 39 63 54q29 13 74 13h6z" />
<glyph unicode="s" horiz-adv-x="440" d="M425 209q0 -88 -71.5 -155t-165.5 -67q-75 0 -122 41.5t-47 108.5q0 9 2 39h134q2 -67 62 -67q29 0 50 19t21 45q0 20 -15.5 31.5t-66.5 29.5q-73 25 -99.5 54t-26.5 82q0 80 65.5 138.5t154.5 58.5q61 0 106.5 -38t45.5 -90q0 -15 -3 -38h-130q-2 44 -44 44 q-23 0 -40.5 -16.5t-17.5 -38.5q0 -17 12 -25.5t70 -26.5q71 -23 98.5 -51t27.5 -78z" />
<glyph unicode="t" horiz-adv-x="300" d="M360 554l-23 -121h-80l-80 -433h-133l80 433h-65l23 121h65l34 185h133l-34 -185h80z" />
<glyph unicode="u" horiz-adv-x="600" d="M620 554l-103 -554h-123l10 53q-80 -66 -174 -66q-81 0 -126.5 46.5t-45.5 118.5q0 40 12 105l55 297h133l-50 -271q-10 -52 -10 -89v-7q0 -37 22 -57.5t60 -20.5q66 0 102.5 37.5t56.5 146.5l48 261h133z" />
<glyph unicode="v" d="M626 554l-326 -554h-106l-120 554h148l60 -367l194 367h150z" />
<glyph unicode="w" horiz-adv-x="800" d="M858 554l-303 -554h-83l-38 359l-174 -359h-82l-95 554h143l36 -338l156 338h106l28 -338l164 338h142z" />
<glyph unicode="x" d="M524 0h-160l-81 190l-152 -190h-160l250 286l-120 268h150l69 -167l129 167h150l-219 -268z" />
<glyph unicode="y" horiz-adv-x="580" d="M641 554l-455 -739h-143l146 237l-110 502h152l56 -359l201 359h153z" />
<glyph unicode="z" horiz-adv-x="460" d="M435 118l-22 -118h-423l22 118l305 318h-217l22 118h376l-22 -118l-304 -318h263z" />
<glyph unicode="{" horiz-adv-x="340" d="M409 739l-15 -80q-40 -5 -57 -14.5t-24 -33.5l-13 -54l-23 -123q-17 -109 -104 -126l-10 -3q38 -8 54.5 -27t16.5 -55q0 -27 -4 -46l-23 -123q-7 -37 -7 -42l-3 -18l3 -15q5 -22 63 -27l-15 -80q-14 -1 -32 -1q-66 0 -96.5 23t-30.5 72q0 21 5 44l29 157q4 28 4 34 q0 51 -63 64l15 81q46 10 67 32t28 66l29 157q13 73 54.5 106t120.5 33q17 0 31 -1z" />
<glyph unicode="|" horiz-adv-x="600" d="M392 -137h-138v876h138v-876z" />
<glyph unicode="}" horiz-adv-x="340" d="M315 265q-42 -7 -65 -30.5t-31 -67.5l-29 -157q-14 -76 -55 -107.5t-119 -31.5q-18 0 -32 1l15 80l7 1q49 6 60 18.5t27 82.5l23 123q10 57 35 86.5t70 39.5l9 3q-39 10 -55 29t-16 56q0 24 4 43l23 123q9 49 10 56q0 23 -12.5 31.5t-53.5 14.5l15 80q15 1 33 1 q65 0 95.5 -23t30.5 -72q0 -9 -5 -44l-29 -157q-3 -16 -3 -33q0 -26 16.5 -43.5t46.5 -21.5z" />
<glyph unicode="~" horiz-adv-x="600" d="M589 347q-50 -63 -88 -90t-77 -27q-34 0 -88 24l-50 22q-46 20 -60 20q-26 0 -51 -22q-10 -9 -51 -60l-49 75q54 70 89.5 96.5t82.5 26.5q33 0 72 -16l63 -27q23 -10 35.5 -15t17.5 -6.5t13 -0.5q36 0 91 74z" />
<glyph unicode="&#xa1;" horiz-adv-x="280" d="M144 -185h-133l102 551h133zM281 554l-24 -128h-133l24 128h133z" />
<glyph unicode="&#xa2;" d="M539 310q-41 -69 -87 -106.5t-111 -55.5l-21 -109h-125l21 109q-67 15 -103.5 66t-36.5 119q0 97 63.5 175.5t161.5 102.5l20 104h125l-20 -104q61 -14 98 -60t39 -108h-142q-8 19 -32 32.5t-49 13.5q-52 0 -89.5 -39t-37.5 -92q0 -40 24.5 -64t65.5 -24q23 0 41 8t49 32 h146z" />
<glyph unicode="&#xa3;" d="M576 243q0 -38 -25 -87t-61 -83q-44 -41 -92.5 -57t-126.5 -16h-261l23 125h140q34 46 34 99q0 45 -38 86h-142l24 125h58q-6 19 -6 39q0 109 86.5 193.5t198.5 84.5q85 0 141.5 -51.5t56.5 -128.5q0 -3 -2 -31h-135q0 42 -23.5 65.5t-55.5 23.5q-51 0 -90.5 -43 t-39.5 -98q0 -30 12 -54h207l-24 -125h-107q15 -41 15 -76q0 -46 -29 -109h10q114 0 117 149h132q3 -21 3 -31z" />
<glyph unicode="&#xa4;" d="M610 572l-50 -43q17 -44 17 -83q0 -50 -13 -86.5t-52 -87.5l34 -43l-92 -81l-37 42q-66 -37 -142 -37q-62 0 -120 37l-51 -42l-65 81l51 43q-18 39 -18 74q0 101 66 183l-35 45l95 80l37 -44q65 36 134 36q70 0 126 -36l53 44zM454 422q0 44 -30 73.5t-73 29.5 q-59 0 -107.5 -44t-48.5 -110q0 -39 31.5 -68.5t72.5 -29.5q61 0 108 45.5t47 103.5z" />
<glyph unicode="&#xa5;" d="M696 739l-191 -272h95l-16 -87h-144l-76 -106h192l-16 -87h-192l-35 -187h-133l35 187h-194l16 87h194l-36 106h-144l16 87h97l-90 272h149l97 -341l222 341h154z" />
<glyph unicode="&#xa6;" horiz-adv-x="600" d="M392 389h-138v350h138v-350zM392 -137h-138v350h138v-350z" />
<glyph unicode="&#xa7;" d="M560 321q0 -47 -23 -86.5t-82 -84.5q31 -34 31 -87q0 -88 -74.5 -154t-180.5 -66q-89 0 -141 48t-52 118q0 19 3 46h133q-4 -16 -4 -31q0 -25 25.5 -42t62.5 -17q41 0 70.5 22.5t29.5 54.5q0 16 -11.5 27t-50.5 34l-148 84q-41 23 -58.5 51.5t-17.5 71.5q0 115 110 183 q-14 28 -14 62q0 84 68 140.5t169 56.5q82 0 127.5 -42t45.5 -118q0 -17 -1 -29h-126q-3 38 -20 52.5t-57 14.5q-36 0 -57 -15.5t-21 -43.5q0 -32 49 -59l149 -81q66 -35 66 -110zM432 286q0 15 -10 25t-42 28l-135 74q-53 -34 -53 -59l1 -12q3 -26 50 -51l138 -76 q51 36 51 71z" />
<glyph unicode="&#xa8;" horiz-adv-x="500" d="M318 766l-25 -132h-133l25 132h133zM528 766l-25 -132h-133l25 132h133z" />
<glyph unicode="&#xa9;" horiz-adv-x="740" d="M743 337q0 -145 -102.5 -247.5t-247.5 -102.5t-247.5 102.5t-102.5 247.5t102.5 247.5t247.5 102.5t247.5 -102.5t102.5 -247.5zM683 337q0 120 -85 205t-205 85t-205 -85t-85 -205t85 -205t205 -85t205 85t85 205zM619 407h-106q-29 47 -96 47q-59 0 -105 -40t-46 -94 q0 -44 32 -72q30 -28 77 -28q52 0 108 45h108q-32 -60 -95.5 -97t-135.5 -37q-83 0 -136 49q-56 50 -56 125q0 91 79 163q81 75 184 75q71 0 122 -35t66 -101z" />
<glyph unicode="&#xaa;" horiz-adv-x="360" d="M450 741l-56 -298h-66l8 41q-48 -51 -112 -51q-52 0 -84 36.5t-32 90.5q0 76 56 134t127 58q55 0 85 -50l8 39h66zM352 613q0 28 -19.5 47t-47.5 19q-37 0 -67.5 -32t-30.5 -71q0 -30 18.5 -50t46.5 -20q40 0 70 32t30 75zM388 382l-13 -70h-315l13 70h315z" />
<glyph unicode="&#xab;" horiz-adv-x="460" d="M406 231l-23 -123l-115 131l19 100l163 130l-23 -123l-78 -57zM193 231l-23 -123l-115 131l19 100l163 130l-23 -123l-78 -57z" />
<glyph unicode="&#xac;" horiz-adv-x="600" d="M569 158h-138v115h-354v138h492v-253z" />
<glyph unicode="&#xad;" horiz-adv-x="420" d="M391 347l-22 -118h-277l22 118h277z" />
<glyph unicode="&#xae;" horiz-adv-x="740" d="M743 337q0 -145 -102.5 -247.5t-247.5 -102.5t-247.5 102.5t-102.5 247.5t102.5 247.5t247.5 102.5t247.5 -102.5t102.5 -247.5zM683 337q0 120 -85 205t-205 85t-205 -85t-85 -205t85 -205t205 -85t205 85t85 205zM567 433q1 -54 -31 -93.5t-93 -57.5l89 -144h-121 l-72 126l-23 -126h-96l74 399h129q140 0 144 -104zM453.5 440q-15.5 8 -54.5 8h-25l-17 -92h28q84 0 84 53q0 23 -15.5 31z" />
<glyph unicode="&#xaf;" horiz-adv-x="420" d="M441 651h-279l17 99h280z" />
<glyph unicode="&#xb0;" horiz-adv-x="400" d="M432 536q0 -62 -44.5 -106t-108.5 -44q-63 0 -107.5 44t-44.5 107q0 62 45 105.5t110 43.5q62 0 106 -44t44 -106zM375 536q0 38 -28 65.5t-66 27.5q-40 0 -68.5 -27t-28.5 -65q0 -39 28 -66.5t67 -27.5q40 0 68 27.5t28 65.5z" />
<glyph unicode="&#xb1;" horiz-adv-x="600" d="M569 319h-177v-57h-138v57h-177v138h177v177h138v-177h177v-138zM569 0h-492v138h492v-138z" />
<glyph unicode="&#xb2;" horiz-adv-x="336" d="M349 296h-309l15 75l193 147q70 53 70 97q0 24 -14 37.5t-39 13.5q-64 0 -86 -85h-89q17 82 67.5 123.5t122.5 41.5q57 0 93.5 -32.5t36.5 -83.5q0 -95 -120 -179l-104 -73h178z" />
<glyph unicode="&#xb3;" horiz-adv-x="336" d="M383 465q0 -71 -58 -124t-137 -53q-59 0 -97.5 35t-38.5 88q0 3 2 25h91v-8q0 -27 16 -43.5t42 -16.5q35 0 61.5 24.5t26.5 56.5q0 30 -22 43t-76 13l16 84q84 0 84 48q0 29 -34 29q-35 0 -43 -39h-92q14 55 53.5 87t94.5 32q50 0 81.5 -28.5t31.5 -72.5q0 -57 -56 -94 q54 -28 54 -86z" />
<glyph unicode="&#xb4;" horiz-adv-x="420" d="M498 719l-243 -116l-40 88l236 127z" />
<glyph unicode="&#xb5;" horiz-adv-x="576" d="M620 554l-103 -554h-123l10 53q-58 -66 -126 -66q-69 0 -111 65l-44 -237h-133l137 739h133l-52 -278q-4 -20 -4 -37q0 -57 29.5 -93.5t75.5 -36.5q57 0 92 51q13 20 19 41.5t19 91.5l48 261h133z" />
<glyph unicode="&#xb6;" horiz-adv-x="600" d="M634 739l-161 -867h-102l141 760h-83l-141 -760h-101l85 458q-82 4 -125.5 45t-43.5 114q0 52 23 102t61 84q40 35 92.5 49.5t136.5 14.5h218z" />
<glyph unicode="&#xb7;" horiz-adv-x="280" d="M227 250q0 -26 -19 -45t-45 -19t-45 19t-19 45t19 45t45 19t45 -19t19 -45z" />
<glyph unicode="&#xb8;" horiz-adv-x="340" d="M211 -152q-8 -44 -39.5 -71t-74.5 -27q-39 0 -61.5 23t-22.5 61h61q7 -29 32 -29q18 0 33.5 16.5t15.5 36.5q0 15 -9 25.5t-23 10.5q-19 0 -43 -27l-47 26l66 112h52l-42 -63q20 7 30 7q32 0 53 -23t21 -58q0 -6 -2 -20z" />
<glyph unicode="&#xb9;" horiz-adv-x="336" d="M266 296h-87l67 361h-67l15 82h154z" />
<glyph unicode="&#xba;" horiz-adv-x="360" d="M421 625q0 -71 -56 -126t-129 -55q-53 0 -90.5 36.5t-37.5 88.5q0 73 56.5 128t130.5 55q57 0 91.5 -35t34.5 -92zM347 612q0 30 -19 50t-47 20q-39 0 -69 -30.5t-30 -69.5q0 -29 19 -47t49 -18q38 0 67.5 29t29.5 66zM380 383l-13 -70h-307l13 70h307z" />
<glyph unicode="&#xbb;" horiz-adv-x="460" d="M463 339l-19 -100l-163 -131l23 123l79 58l-58 57l23 123zM250 339l-19 -100l-163 -131l23 123l79 58l-58 57l23 123z" />
<glyph unicode="&#xbc;" horiz-adv-x="840" d="M266 296h-87l67 361h-67l15 82h154zM815 65h-48l-12 -65h-91l12 65h-198l13 68l270 310h76l-56 -301h48zM690 142l28 152l-130 -152h102zM717 739l-443 -739h-95l443 739h95z" />
<glyph unicode="&#xbd;" horiz-adv-x="840" d="M798 0h-309l15 75l193 147q70 53 70 97q0 24 -14 37.5t-39 13.5q-64 0 -86 -85h-89q17 82 67.5 123.5t122.5 41.5q57 0 93.5 -32.5t36.5 -83.5q0 -95 -120 -179l-104 -73h178zM271 296h-87l67 361h-67l15 82h154zM713 739l-443 -739h-95l443 739h95z" />
<glyph unicode="&#xbe;" horiz-adv-x="840" d="M383 465q0 -71 -58 -124t-137 -53q-59 0 -97.5 35t-38.5 88q0 3 2 25h91v-8q0 -27 16 -43.5t42 -16.5q35 0 61.5 24.5t26.5 56.5q0 30 -22 43t-76 13l16 84q84 0 84 48q0 29 -34 29q-35 0 -43 -39h-92q14 55 53.5 87t94.5 32q50 0 81.5 -28.5t31.5 -72.5q0 -57 -56 -94 q54 -28 54 -86zM815 65h-48l-12 -65h-91l12 65h-198l13 68l270 310h76l-56 -301h48zM690 142l28 152l-130 -152h102zM749 739l-443 -739h-95l443 739h95z" />
<glyph unicode="&#xbf;" d="M504 34q-25 -106 -99.5 -169t-172.5 -63q-82 0 -133.5 51t-51.5 133q0 73 40 131q25 35 100 93q48 38 65.5 67t27.5 90h133q-18 -97 -49.5 -145.5t-117.5 -109.5q-62 -45 -62 -104q0 -33 22 -53.5t57 -20.5q79 0 108 100h133zM424 426h-133l23 128h133z" />
<glyph unicode="&#xc0;" horiz-adv-x="740" d="M592 866l-73 -88l-200 116l84 99zM703 0h-151l-44 191h-263l-117 -191h-151l445 739h108zM478 323l-38 223l-120 -223h158z" />
<glyph unicode="&#xc1;" horiz-adv-x="740" d="M690 894l-243 -116l-40 88l236 127zM703 0h-151l-44 191h-263l-117 -191h-151l445 739h108zM478 323l-38 223l-120 -223h158z" />
<glyph unicode="&#xc2;" horiz-adv-x="740" d="M688 806h-145l-41 64l-66 -64h-147l173 138h107zM703 0h-151l-44 191h-263l-117 -191h-151l445 739h108zM478 323l-38 223l-120 -223h158z" />
<glyph unicode="&#xc3;" horiz-adv-x="740" d="M703 0h-151l-44 191h-263l-117 -191h-151l445 739h108zM478 323l-38 223l-120 -223h158zM659 862q-45 -56 -108 -56q-7 0 -60 15.5t-61 15.5q-20 0 -55 -30l-38 85q20 21 47.5 34.5t49.5 13.5q12 0 56 -15.5t54 -15.5q21 0 34 5.5t47 29.5z" />
<glyph unicode="&#xc4;" horiz-adv-x="740" d="M469 941l-25 -132h-133l25 132h133zM679 941l-25 -132h-133l25 132h133zM703 0h-151l-44 191h-263l-117 -191h-151l445 739h108zM478 323l-38 223l-120 -223h158z" />
<glyph unicode="&#xc5;" horiz-adv-x="740" d="M703 0h-151l-44 191h-263l-117 -191h-151l445 739h108zM478 323l-38 223l-120 -223h158zM619 910q0 -54 -41.5 -94.5t-96.5 -40.5q-41 0 -67 25.5t-26 65.5q0 54 41.5 94.5t95.5 40.5q40 0 67 -26t27 -65zM544 895q0 13 -10 23t-23 10q-19 0 -33.5 -15t-14.5 -34 q0 -12 10 -21.5t24 -9.5q18 0 32.5 14.5t14.5 32.5z" />
<glyph unicode="&#xc6;" horiz-adv-x="900" d="M926 607h-218l-33 -172h207l-24 -132h-207l-32 -171h218l-24 -132h-355l35 191h-194l-148 -191h-164l624 739h339zM518 323l35 190l-150 -190h115z" />
<glyph unicode="&#xc7;" horiz-adv-x="780" d="M828 527h-154q-29 50 -70.5 71.5t-105.5 21.5q-114 0 -205 -87.5t-91 -205.5q0 -91 58 -149.5t147 -58.5q54 0 99 19.5t101 67.5h161q-57 -94 -154 -153t-205 -65l-30 -46q20 7 30 7q32 0 53 -23t21 -58q0 -6 -2 -20q-8 -44 -39.5 -71t-74.5 -27q-39 0 -61.5 23t-22.5 61 h61q7 -29 32 -29q18 0 33.5 16.5t15.5 36.5q0 15 -9 25.5t-23 10.5q-19 0 -43 -27l-47 26l56 95q-132 9 -214.5 97t-82.5 218q0 114 64.5 218t170.5 167.5t221 63.5q114 0 197 -57.5t113 -167.5z" />
<glyph unicode="&#xc8;" horiz-adv-x="520" d="M490 866l-73 -88l-200 116l84 99zM548 607h-260l-33 -172h249l-24 -132h-249l-32 -171h260l-24 -132h-397l137 739h397z" />
<glyph unicode="&#xc9;" horiz-adv-x="520" d="M588 894l-243 -116l-40 88l236 127zM548 607h-260l-33 -172h249l-24 -132h-249l-32 -171h260l-24 -132h-397l137 739h397z" />
<glyph unicode="&#xca;" horiz-adv-x="520" d="M586 806h-145l-41 64l-66 -64h-147l173 138h107zM548 607h-260l-33 -172h249l-24 -132h-249l-32 -171h260l-24 -132h-397l137 739h397z" />
<glyph unicode="&#xcb;" horiz-adv-x="520" d="M367 941l-25 -132h-133l25 132h133zM577 941l-25 -132h-133l25 132h133zM548 607h-260l-33 -172h249l-24 -132h-249l-32 -171h260l-24 -132h-397l137 739h397z" />
<glyph unicode="&#xcc;" horiz-adv-x="280" d="M392 866l-73 -88l-200 116l84 99zM312 739l-137 -739h-137l137 739h137z" />
<glyph unicode="&#xcd;" horiz-adv-x="280" d="M426 894l-243 -116l-40 88l236 127zM312 739l-137 -739h-137l137 739h137z" />
<glyph unicode="&#xce;" horiz-adv-x="280" d="M456 806h-145l-41 64l-66 -64h-147l173 138h107zM312 739l-137 -739h-137l137 739h137z" />
<glyph unicode="&#xcf;" horiz-adv-x="280" d="M237 941l-25 -132h-133l25 132h133zM447 941l-25 -132h-133l25 132h133zM312 739l-137 -739h-137l137 739h137z" />
<glyph unicode="&#xd0;" horiz-adv-x="742" d="M746 456q0 -117 -51 -219t-140 -163q-59 -40 -129 -57t-176 -17h-172l59 321h-94l20 107h94l58 311h169q193 0 277.5 -72t84.5 -211zM606 424q0 94 -57 139t-195 45h-27l-33 -180h149l-20 -107h-149l-35 -190h30q92 0 151.5 19t100.5 62q39 40 62 97t23 115z" />
<glyph unicode="&#xd1;" horiz-adv-x="740" d="M658 862q-45 -56 -108 -56q-7 0 -60 15.5t-61 15.5q-20 0 -55 -30l-38 85q20 21 47.5 34.5t49.5 13.5q13 0 57 -15.5t53 -15.5q21 0 34 5.5t47 29.5zM774 739l-137 -739h-153l-209 537l-100 -537h-137l137 739h156l206 -538l100 538h137z" />
<glyph unicode="&#xd2;" horiz-adv-x="840" d="M643 866l-73 -88l-200 116l84 99zM845 439q0 -117 -63.5 -221.5t-170 -167.5t-225.5 -63q-142 0 -233.5 88t-91.5 225q0 118 67 223.5t175.5 167t225.5 61.5q138 0 227 -88t89 -225zM705 419q0 88 -57 144.5t-146 56.5q-117 0 -209 -90.5t-92 -206.5q0 -89 59 -146.5 t150 -57.5q116 0 205.5 89.5t89.5 210.5z" />
<glyph unicode="&#xd3;" horiz-adv-x="840" d="M741 894l-243 -116l-40 88l236 127zM845 439q0 -117 -63.5 -221.5t-170 -167.5t-225.5 -63q-142 0 -233.5 88t-91.5 225q0 118 67 223.5t175.5 167t225.5 61.5q138 0 227 -88t89 -225zM705 419q0 88 -57 144.5t-146 56.5q-117 0 -209 -90.5t-92 -206.5q0 -89 59 -146.5 t150 -57.5q116 0 205.5 89.5t89.5 210.5z" />
<glyph unicode="&#xd4;" horiz-adv-x="840" d="M739 806h-145l-41 64l-66 -64h-147l173 138h107zM845 439q0 -117 -63.5 -221.5t-170 -167.5t-225.5 -63q-142 0 -233.5 88t-91.5 225q0 118 67 223.5t175.5 167t225.5 61.5q138 0 227 -88t89 -225zM705 419q0 88 -57 144.5t-146 56.5q-117 0 -209 -90.5t-92 -206.5 q0 -89 59 -146.5t150 -57.5q116 0 205.5 89.5t89.5 210.5z" />
<glyph unicode="&#xd5;" horiz-adv-x="840" d="M710 862q-45 -56 -108 -56q-7 0 -60 15.5t-61 15.5q-20 0 -55 -30l-38 85q20 21 47.5 34.5t49.5 13.5q13 0 57 -15.5t53 -15.5q21 0 34 5.5t47 29.5zM845 439q0 -117 -63.5 -221.5t-170 -167.5t-225.5 -63q-142 0 -233.5 88t-91.5 225q0 118 67 223.5t175.5 167 t225.5 61.5q138 0 227 -88t89 -225zM705 419q0 88 -57 144.5t-146 56.5q-117 0 -209 -90.5t-92 -206.5q0 -89 59 -146.5t150 -57.5q116 0 205.5 89.5t89.5 210.5z" />
<glyph unicode="&#xd6;" horiz-adv-x="840" d="M520 941l-25 -132h-133l25 132h133zM730 941l-25 -132h-133l25 132h133zM845 439q0 -117 -63.5 -221.5t-170 -167.5t-225.5 -63q-142 0 -233.5 88t-91.5 225q0 118 67 223.5t175.5 167t225.5 61.5q138 0 227 -88t89 -225zM705 419q0 88 -57 144.5t-146 56.5 q-117 0 -209 -90.5t-92 -206.5q0 -89 59 -146.5t150 -57.5q116 0 205.5 89.5t89.5 210.5z" />
<glyph unicode="&#xd7;" horiz-adv-x="600" d="M546 125l-98 -98l-125 125l-125 -125l-98 98l125 125l-125 125l98 98l125 -125l125 125l98 -98l-125 -125z" />
<glyph unicode="&#xd8;" horiz-adv-x="840" d="M851 438q0 -110 -62.5 -214.5t-169.5 -170.5t-226 -66q-82 0 -164 36l-88 -103l-80 69l83 98q-78 91 -78 210q0 117 64.5 222.5t171 169t224.5 63.5q81 0 158 -33l92 107l81 -69l-88 -102q82 -79 82 -217zM587 606q-41 14 -83 14q-117 0 -207.5 -90.5t-90.5 -207.5 q0 -56 36 -121zM711 415q0 78 -38 127l-348 -406q43 -17 89 -17q119 0 208 89t89 207z" />
<glyph unicode="&#xd9;" horiz-adv-x="640" d="M541 866l-73 -88l-200 116l84 99zM588 271q-25 -136 -107.5 -210t-195.5 -74q-89 0 -147.5 53.5t-58.5 135.5q0 44 10 95l86 468h137l-86 -468q-9 -48 -9 -70q0 -34 27 -58t65 -24q113 0 142 152l86 468h137z" />
<glyph unicode="&#xda;" horiz-adv-x="640" d="M639 894l-243 -116l-40 88l236 127zM588 271q-25 -136 -107.5 -210t-195.5 -74q-89 0 -147.5 53.5t-58.5 135.5q0 44 10 95l86 468h137l-86 -468q-9 -48 -9 -70q0 -34 27 -58t65 -24q113 0 142 152l86 468h137z" />
<glyph unicode="&#xdb;" horiz-adv-x="640" d="M637 806h-145l-41 64l-66 -64h-147l173 138h107zM588 271q-25 -136 -107.5 -210t-195.5 -74q-89 0 -147.5 53.5t-58.5 135.5q0 44 10 95l86 468h137l-86 -468q-9 -48 -9 -70q0 -34 27 -58t65 -24q113 0 142 152l86 468h137z" />
<glyph unicode="&#xdc;" horiz-adv-x="640" d="M418 941l-25 -132h-133l25 132h133zM628 941l-25 -132h-133l25 132h133zM588 271q-25 -136 -107.5 -210t-195.5 -74q-89 0 -147.5 53.5t-58.5 135.5q0 44 10 95l86 468h137l-86 -468q-9 -48 -9 -70q0 -34 27 -58t65 -24q113 0 142 152l86 468h137z" />
<glyph unicode="&#xdd;" horiz-adv-x="620" d="M636 894l-243 -116l-40 88l236 127zM733 739l-329 -466l-51 -273h-137l51 273l-157 466h148l100 -340l227 340h148z" />
<glyph unicode="&#xde;" d="M583 422q0 -57 -24 -114.5t-64 -95.5q-46 -43 -95 -57t-155 -14h-44l-26 -141h-137l137 739h137l-26 -140h46q134 0 182 -34q69 -49 69 -143zM443 389q0 44 -26.5 61t-108.5 17h-46l-37 -195h40q86 0 132 27t46 90z" />
<glyph unicode="&#xdf;" horiz-adv-x="600" d="M598 260q0 -112 -83.5 -192.5t-195.5 -80.5q-126 0 -161 92l-15 -79h-122l90 487q22 121 94 193t177 72q81 0 132 -46.5t51 -120.5q0 -123 -104 -176q137 -36 137 -149zM461 226q0 48 -34 68.5t-133 20.5h-11l22 118h11q46 0 79 38.5t33 91.5q0 31 -19 49t-51 18 q-87 0 -111 -127l-58 -314h82q11 -80 80 -80q44 0 77 35t33 82z" />
<glyph unicode="&#xe0;" horiz-adv-x="660" d="M586 0h-122l13 72q-89 -85 -200 -85q-105 0 -168.5 62t-63.5 164q0 145 102 249.5t243 104.5q116 0 163 -87l13 74h122zM514 313q0 61 -36 96.5t-98 35.5q-80 0 -139 -61.5t-59 -143.5q0 -60 36.5 -95.5t98.5 -35.5q83 0 140 58.5t57 145.5zM506 691l-73 -88l-200 116 l84 99z" />
<glyph unicode="&#xe1;" horiz-adv-x="660" d="M603 719l-243 -116l-40 88l236 127zM586 0h-122l13 72q-89 -85 -200 -85q-105 0 -168.5 62t-63.5 164q0 145 102 249.5t243 104.5q116 0 163 -87l13 74h122zM514 313q0 61 -36 96.5t-98 35.5q-80 0 -139 -61.5t-59 -143.5q0 -60 36.5 -95.5t98.5 -35.5q83 0 140 58.5 t57 145.5z" />
<glyph unicode="&#xe2;" horiz-adv-x="660" d="M601 631h-145l-41 64l-66 -64h-147l173 138h107zM586 0h-122l13 72q-89 -85 -200 -85q-105 0 -168.5 62t-63.5 164q0 145 102 249.5t243 104.5q116 0 163 -87l13 74h122zM514 313q0 61 -36 96.5t-98 35.5q-80 0 -139 -61.5t-59 -143.5q0 -60 36.5 -95.5t98.5 -35.5 q83 0 140 58.5t57 145.5z" />
<glyph unicode="&#xe3;" horiz-adv-x="660" d="M586 0h-122l13 72q-89 -85 -200 -85q-105 0 -168.5 62t-63.5 164q0 145 102 249.5t243 104.5q116 0 163 -87l13 74h122zM514 313q0 61 -36 96.5t-98 35.5q-80 0 -139 -61.5t-59 -143.5q0 -60 36.5 -95.5t98.5 -35.5q83 0 140 58.5t57 145.5zM573 687q-45 -56 -108 -56 q-7 0 -60 15.5t-61 15.5q-20 0 -55 -30l-38 85q20 21 47.5 34.5t49.5 13.5q12 0 56 -15.5t54 -15.5q21 0 34 5.5t47 29.5z" />
<glyph unicode="&#xe4;" horiz-adv-x="660" d="M383 766l-25 -132h-133l25 132h133zM593 766l-25 -132h-133l25 132h133zM586 0h-122l13 72q-89 -85 -200 -85q-105 0 -168.5 62t-63.5 164q0 145 102 249.5t243 104.5q116 0 163 -87l13 74h122zM514 313q0 61 -36 96.5t-98 35.5q-80 0 -139 -61.5t-59 -143.5 q0 -60 36.5 -95.5t98.5 -35.5q83 0 140 58.5t57 145.5z" />
<glyph unicode="&#xe5;" horiz-adv-x="660" d="M586 0h-122l13 72q-89 -85 -200 -85q-105 0 -168.5 62t-63.5 164q0 145 102 249.5t243 104.5q116 0 163 -87l13 74h122zM514 313q0 61 -36 96.5t-98 35.5q-80 0 -139 -61.5t-59 -143.5q0 -60 36.5 -95.5t98.5 -35.5q83 0 140 58.5t57 145.5zM532 732q0 -54 -41.5 -94.5 t-95.5 -40.5q-41 0 -67.5 25.5t-26.5 65.5q0 54 41.5 94.5t96.5 40.5q39 0 66 -26t27 -65zM457 717q0 13 -10 23t-23 10q-19 0 -33.5 -15t-14.5 -34q0 -12 10 -21.5t24 -9.5q18 0 32.5 14.5t14.5 32.5z" />
<glyph unicode="&#xe6;" horiz-adv-x="1080" d="M1078 342q0 -58 -27 -123h-428q6 -50 42.5 -80t92.5 -30q74 0 128 55h145q-44 -80 -123 -128.5t-165 -48.5q-55 0 -92 16t-64 57l-12 -60h-122l12 60q-44 -41 -82.5 -57t-94.5 -16q-108 0 -175 63.5t-67 165.5q0 140 103.5 245.5t240.5 105.5q55 0 91 -16t65 -52l10 55 h122l-10 -55q76 68 184 68q97 0 161.5 -64t64.5 -161zM504 312q0 61 -38 97t-91 36q-79 0 -135.5 -60.5t-56.5 -144.5q0 -59 35.5 -95t94.5 -36q77 0 134 60.5t57 142.5zM942 337q-11 62 -42 85t-88 23q-118 0 -174 -108h304z" />
<glyph unicode="&#xe7;" horiz-adv-x="640" d="M640 369h-150q-23 76 -113 76q-79 0 -136 -59t-57 -141q0 -62 36 -99t95 -37q86 0 140 73h150q-49 -88 -122.5 -137.5t-162.5 -56.5l-31 -46q20 7 30 7q32 0 53 -23t21 -58q0 -6 -2 -20q-8 -44 -39.5 -71t-74.5 -27q-39 0 -61.5 23t-22.5 61h61q7 -29 32 -29 q18 0 33.5 16.5t15.5 36.5q0 15 -9 25.5t-23 10.5q-19 0 -43 -27l-47 26l56 95q-97 8 -159.5 74t-62.5 161q0 136 106 240t244 104q95 0 160.5 -50.5t82.5 -147.5z" />
<glyph unicode="&#xe8;" horiz-adv-x="640" d="M615 218h-429q0 -48 36.5 -78.5t93.5 -30.5q80 0 135 55h145q-45 -82 -125 -129.5t-174 -47.5q-111 0 -181 66t-70 170q0 136 106.5 240t245.5 104q104 0 170.5 -63t66.5 -162q0 -76 -20 -124zM511 336q-6 109 -134 109q-58 0 -106 -30t-67 -79h307zM514 691l-73 -88 l-200 116l84 99z" />
<glyph unicode="&#xe9;" horiz-adv-x="640" d="M611 719l-243 -116l-40 88l236 127zM615 218h-429q0 -48 36.5 -78.5t93.5 -30.5q80 0 135 55h145q-45 -82 -125 -129.5t-174 -47.5q-111 0 -181 66t-70 170q0 136 106.5 240t245.5 104q104 0 170.5 -63t66.5 -162q0 -76 -20 -124zM511 336q-6 109 -134 109 q-58 0 -106 -30t-67 -79h307z" />
<glyph unicode="&#xea;" horiz-adv-x="640" d="M609 631h-145l-41 64l-66 -64h-147l173 138h107zM615 218h-429q0 -48 36.5 -78.5t93.5 -30.5q80 0 135 55h145q-45 -82 -125 -129.5t-174 -47.5q-111 0 -181 66t-70 170q0 136 106.5 240t245.5 104q104 0 170.5 -63t66.5 -162q0 -76 -20 -124zM511 336q-6 109 -134 109 q-58 0 -106 -30t-67 -79h307z" />
<glyph unicode="&#xeb;" horiz-adv-x="640" d="M391 766l-25 -132h-133l25 132h133zM601 766l-25 -132h-133l25 132h133zM615 218h-429q0 -48 36.5 -78.5t93.5 -30.5q80 0 135 55h145q-45 -82 -125 -129.5t-174 -47.5q-111 0 -181 66t-70 170q0 136 106.5 240t245.5 104q104 0 170.5 -63t66.5 -162q0 -76 -20 -124z M511 336q-6 109 -134 109q-58 0 -106 -30t-67 -79h307z" />
<glyph unicode="&#xec;" horiz-adv-x="240" d="M342 691l-73 -88l-200 116l84 99zM260 554l-103 -554h-133l103 554h133z" />
<glyph unicode="&#xed;" horiz-adv-x="240" d="M378 719l-243 -116l-40 88l236 127zM260 554l-103 -554h-133l103 554h133z" />
<glyph unicode="&#xee;" horiz-adv-x="240" d="M407 631h-145l-41 64l-66 -64h-147l173 138h107zM260 554l-103 -554h-133l103 554h133z" />
<glyph unicode="&#xef;" horiz-adv-x="240" d="M189 766l-25 -132h-133l25 132h133zM399 766l-25 -132h-133l25 132h133zM260 554l-103 -554h-133l103 554h133z" />
<glyph unicode="&#xf0;" horiz-adv-x="640" d="M650 343q0 -141 -107.5 -248.5t-248.5 -107.5q-109 0 -178.5 68t-69.5 174q0 128 102 227.5t232 99.5q27 0 70 -16q-41 49 -75 78l-85 -33l-34 48l75 30l-16 15l-40 31l93 48q43 -32 67 -55l92 37l42 -44l-87 -36q81 -70 124.5 -151.5t43.5 -164.5zM513 309 q0 59 -37.5 97.5t-94.5 38.5q-78 0 -138 -61t-60 -141q0 -58 38.5 -96t96.5 -38q76 0 135.5 61.5t59.5 138.5z" />
<glyph unicode="&#xf1;" horiz-adv-x="600" d="M558 687q-45 -56 -108 -56q-7 0 -60 15.5t-61 15.5q-20 0 -55 -30l-38 85q20 21 47.5 34.5t49.5 13.5q13 0 57 -15.5t53 -15.5q21 0 34 5.5t47 29.5zM516 0h-133l50 271q9 50 9 92q0 82 -84 82q-59 0 -96 -38.5t-57 -145.5l-48 -261h-133l103 554h123l-10 -53 q46 37 82.5 51.5t82.5 14.5q86 0 132 -42.5t46 -121.5q0 -40 -12 -106z" />
<glyph unicode="&#xf2;" horiz-adv-x="640" d="M645 327q0 -134 -108 -237t-249 -103q-103 0 -172.5 67t-69.5 167q0 137 107 241.5t248 104.5q106 0 175 -68t69 -172zM508 309q0 59 -37 97.5t-93 38.5q-76 0 -135.5 -61t-59.5 -140q0 -58 37.5 -96.5t94.5 -38.5q75 0 134 61.5t59 138.5zM517 691l-73 -88l-200 116 l84 99z" />
<glyph unicode="&#xf3;" horiz-adv-x="640" d="M614 719l-243 -116l-40 88l236 127zM645 327q0 -134 -108 -237t-249 -103q-103 0 -172.5 67t-69.5 167q0 137 107 241.5t248 104.5q106 0 175 -68t69 -172zM508 309q0 59 -37 97.5t-93 38.5q-76 0 -135.5 -61t-59.5 -140q0 -58 37.5 -96.5t94.5 -38.5q75 0 134 61.5 t59 138.5z" />
<glyph unicode="&#xf4;" horiz-adv-x="640" d="M612 631h-145l-41 64l-66 -64h-147l173 138h107zM645 327q0 -134 -108 -237t-249 -103q-103 0 -172.5 67t-69.5 167q0 137 107 241.5t248 104.5q106 0 175 -68t69 -172zM508 309q0 59 -37 97.5t-93 38.5q-76 0 -135.5 -61t-59.5 -140q0 -58 37.5 -96.5t94.5 -38.5 q75 0 134 61.5t59 138.5z" />
<glyph unicode="&#xf5;" horiz-adv-x="640" d="M645 327q0 -134 -108 -237t-249 -103q-103 0 -172.5 67t-69.5 167q0 137 107 241.5t248 104.5q106 0 175 -68t69 -172zM508 309q0 59 -37 97.5t-93 38.5q-76 0 -135.5 -61t-59.5 -140q0 -58 37.5 -96.5t94.5 -38.5q75 0 134 61.5t59 138.5zM584 687q-45 -56 -108 -56 q-7 0 -60 15.5t-61 15.5q-20 0 -55 -30l-38 85q20 21 47.5 34.5t49.5 13.5q12 0 56 -15.5t54 -15.5q21 0 34 5.5t47 29.5z" />
<glyph unicode="&#xf6;" horiz-adv-x="640" d="M394 766l-25 -132h-133l25 132h133zM604 766l-25 -132h-133l25 132h133zM645 327q0 -134 -108 -237t-249 -103q-103 0 -172.5 67t-69.5 167q0 137 107 241.5t248 104.5q106 0 175 -68t69 -172zM508 309q0 59 -37 97.5t-93 38.5q-76 0 -135.5 -61t-59.5 -140 q0 -58 37.5 -96.5t94.5 -38.5q75 0 134 61.5t59 138.5z" />
<glyph unicode="&#xf7;" horiz-adv-x="600" d="M569 181h-492v138h492v-138zM387 435q0 -27 -19 -45.5t-45 -18.5t-45 18.5t-19 45.5q0 26 19 45t45 19t45 -19t19 -45zM387 65q0 -26 -19 -45t-45 -19t-45 19t-19 45q0 27 19 45.5t45 18.5t45 -18.5t19 -45.5z" />
<glyph unicode="&#xf8;" horiz-adv-x="660" d="M648 328q0 -132 -108 -236.5t-244 -104.5q-58 0 -114 24l-63 -75l-73 62l60 70q-57 71 -57 153q0 137 107 241.5t247 104.5q59 0 109 -23l65 76l73 -62l-60 -71q58 -69 58 -159zM511 308q0 46 -16 69l-222 -261q19 -7 41 -7q77 0 137 60.5t60 138.5zM423 438q-28 7 -45 7 q-74 0 -133 -62t-59 -140q0 -32 14 -65z" />
<glyph unicode="&#xf9;" horiz-adv-x="600" d="M620 554l-103 -554h-123l10 53q-80 -66 -174 -66q-81 0 -126.5 46.5t-45.5 118.5q0 40 12 105l55 297h133l-50 -271q-10 -52 -10 -89v-7q0 -37 22 -57.5t60 -20.5q66 0 102.5 37.5t56.5 146.5l48 261h133zM491 691l-73 -88l-200 116l84 99z" />
<glyph unicode="&#xfa;" horiz-adv-x="600" d="M588 719l-243 -116l-40 88l236 127zM620 554l-103 -554h-123l10 53q-80 -66 -174 -66q-81 0 -126.5 46.5t-45.5 118.5q0 40 12 105l55 297h133l-50 -271q-10 -52 -10 -89v-7q0 -37 22 -57.5t60 -20.5q66 0 102.5 37.5t56.5 146.5l48 261h133z" />
<glyph unicode="&#xfb;" horiz-adv-x="600" d="M586 631h-145l-41 64l-66 -64h-147l173 138h107zM620 554l-103 -554h-123l10 53q-80 -66 -174 -66q-81 0 -126.5 46.5t-45.5 118.5q0 40 12 105l55 297h133l-50 -271q-10 -52 -10 -89v-7q0 -37 22 -57.5t60 -20.5q66 0 102.5 37.5t56.5 146.5l48 261h133z" />
<glyph unicode="&#xfc;" horiz-adv-x="600" d="M368 766l-25 -132h-133l25 132h133zM578 766l-25 -132h-133l25 132h133zM620 554l-103 -554h-123l10 53q-80 -66 -174 -66q-81 0 -126.5 46.5t-45.5 118.5q0 40 12 105l55 297h133l-50 -271q-10 -52 -10 -89v-7q0 -37 22 -57.5t60 -20.5q66 0 102.5 37.5t56.5 146.5 l48 261h133z" />
<glyph unicode="&#xfd;" horiz-adv-x="580" d="M575 719l-243 -116l-40 88l236 127zM641 554l-455 -739h-143l146 237l-110 502h152l56 -359l201 359h153z" />
<glyph unicode="&#xfe;" horiz-adv-x="660" d="M661 344q0 -147 -98.5 -252t-237.5 -105q-99 0 -158 65l-44 -237h-133l171 924h122l-46 -250q35 37 87 57.5t108 20.5q101 0 165 -60.5t64 -162.5zM524 309q0 58 -35.5 97t-95.5 39q-79 0 -137.5 -61t-58.5 -143q0 -57 38.5 -94.5t97.5 -37.5q74 0 132.5 61.5t58.5 138.5 z" />
<glyph unicode="&#xff;" horiz-adv-x="580" d="M355 766l-25 -132h-133l25 132h133zM565 766l-25 -132h-133l25 132h133zM641 554l-455 -739h-143l146 237l-110 502h152l56 -359l201 359h153z" />
<glyph unicode="&#x152;" horiz-adv-x="1060" d="M1087 607h-217l-33 -172h206l-24 -132h-206l-32 -171h217l-24 -132h-356l15 82q-46 -44 -111.5 -69.5t-133.5 -25.5q-140 0 -229 84.5t-89 218.5q0 122 62 228.5t167 170t224 63.5q154 0 217 -96l15 83h356zM695 421q0 89 -53.5 143.5t-140.5 54.5q-118 0 -204.5 -92 t-86.5 -209q0 -87 55 -142.5t144 -55.5q117 0 201.5 89t84.5 212z" />
<glyph unicode="&#x153;" horiz-adv-x="1080" d="M1052 218h-429q7 -52 44 -80.5t89 -28.5q35 0 71.5 15t59.5 39h141q-30 -71 -117.5 -123.5t-176.5 -52.5q-70 0 -124 30t-80 83q-98 -113 -241 -113q-108 0 -175.5 65t-67.5 170q0 136 104.5 240.5t241.5 104.5q72 0 120 -26.5t84 -84.5q62 60 116.5 85.5t120.5 25.5 q107 0 174.5 -61.5t67.5 -158.5q0 -50 -23 -129zM508 311q0 60 -36 97t-95 37q-78 0 -136 -60t-58 -142q0 -58 37.5 -96t94.5 -38q81 0 137 62.5t56 139.5zM941 336q-8 56 -39.5 82.5t-89.5 26.5q-113 0 -173 -109h302z" />
<glyph unicode="&#x178;" horiz-adv-x="620" d="M415 941l-25 -132h-133l25 132h133zM625 941l-25 -132h-133l25 132h133zM733 739l-329 -466l-51 -273h-137l51 273l-157 466h148l100 -340l227 340h148z" />
<glyph unicode="&#x2c6;" horiz-adv-x="540" d="M556 631h-145l-41 64l-66 -64h-147l173 138h107z" />
<glyph unicode="&#x2dc;" horiz-adv-x="480" d="M498 687q-45 -56 -108 -56q-7 0 -60 15.5t-61 15.5q-20 0 -55 -30l-38 85q20 21 47.5 34.5t49.5 13.5q13 0 57 -15.5t53 -15.5q21 0 34 5.5t47 29.5z" />
<glyph unicode="&#x2000;" horiz-adv-x="500" />
<glyph unicode="&#x2001;" horiz-adv-x="1001" />
<glyph unicode="&#x2002;" horiz-adv-x="500" />
<glyph unicode="&#x2003;" horiz-adv-x="1001" />
<glyph unicode="&#x2004;" horiz-adv-x="333" />
<glyph unicode="&#x2005;" horiz-adv-x="250" />
<glyph unicode="&#x2006;" horiz-adv-x="166" />
<glyph unicode="&#x2007;" horiz-adv-x="166" />
<glyph unicode="&#x2008;" horiz-adv-x="125" />
<glyph unicode="&#x2009;" horiz-adv-x="200" />
<glyph unicode="&#x200a;" horiz-adv-x="55" />
<glyph unicode="&#x2010;" horiz-adv-x="420" d="M391 347l-22 -118h-277l22 118h277z" />
<glyph unicode="&#x2011;" horiz-adv-x="420" d="M391 347l-22 -118h-277l22 118h277z" />
<glyph unicode="&#x2013;" horiz-adv-x="500" d="M540 347l-22 -118h-500l22 118h500z" />
<glyph unicode="&#x2014;" horiz-adv-x="1000" d="M1040 347l-22 -118h-1000l22 118h1000z" />
<glyph unicode="&#x2018;" horiz-adv-x="280" d="M313 739l-13 -67q-37 -8 -52.5 -25t-19.5 -53h58l-24 -128h-131l26 140q7 58 50.5 95t105.5 38z" />
<glyph unicode="&#x2019;" horiz-adv-x="280" d="M312 739l-26 -140q-4 -56 -50 -94.5t-107 -38.5l12 67q67 9 73 78h-58l24 128h132z" />
<glyph unicode="&#x201a;" horiz-adv-x="280" d="M173 -7q-12 -61 -53.5 -97t-92.5 -36h-11l12 67q69 10 72 73h-58l24 128h132z" />
<glyph unicode="&#x201c;" horiz-adv-x="480" d="M518 739l-13 -67q-37 -8 -52.5 -25t-19.5 -53h58l-24 -128h-131l26 140q7 58 50.5 95t105.5 38zM311 739l-13 -67q-37 -8 -52.5 -25t-19.5 -53h58l-24 -128h-131l26 140q7 58 50.5 95t105.5 38z" />
<glyph unicode="&#x201d;" horiz-adv-x="480" d="M310 739l-26 -140q-5 -56 -51 -95q-45 -38 -103 -38h-3l12 67q67 9 73 78h-58l24 128h132zM517 739l-26 -140q-5 -56 -51 -95q-45 -38 -103 -38h-3l12 67q67 9 73 78h-58l24 128h132z" />
<glyph unicode="&#x201e;" horiz-adv-x="480" d="M198 128l-26 -140q-10 -57 -54 -95t-103 -38l12 67q67 9 73 78h-58l24 128h132zM405 128l-26 -140q-8 -56 -52.5 -94.5t-104.5 -38.5l12 67q67 9 73 78h-58l24 128h132z" />
<glyph unicode="&#x2022;" horiz-adv-x="600" d="M503 316q0 -72 -50.5 -122t-122.5 -50q-70 0 -120 50.5t-50 121.5t50.5 121t121.5 50q70 0 120.5 -50.5t50.5 -120.5z" />
<glyph unicode="&#x2026;" horiz-adv-x="1000" d="M894 128l-24 -128h-134l24 128h134zM561 128l-24 -128h-134l24 128h134zM228 128l-24 -128h-134l24 128h134z" />
<glyph unicode="&#x202f;" horiz-adv-x="200" />
<glyph unicode="&#x2039;" horiz-adv-x="240" d="M193 231l-23 -123l-115 131l19 100l163 130l-23 -123l-78 -57z" />
<glyph unicode="&#x203a;" horiz-adv-x="240" d="M250 339l-19 -100l-163 -131l23 123l79 58l-58 57l23 123z" />
<glyph unicode="&#x205f;" horiz-adv-x="250" />
<glyph unicode="&#x20ac;" d="M643 684l-59 -103q-88 59 -169 59q-70 0 -116.5 -36.5t-86.5 -122.5h315l-50 -88h-288l-9 -45h272l-50 -88h-233q6 -74 43 -114.5t106 -40.5q48 0 155 40l-23 -123q-87 -33 -166 -33q-89 0 -156 46q-46 32 -66.5 83t-23.5 142h-101l41 88h68q6 33 9 45h-94l40 88h79 q59 142 145.5 206t210.5 64q61 0 106 -14.5t101 -52.5z" />
<glyph unicode="&#x2122;" horiz-adv-x="1023" d="M482 643h-89l-62 -336h-109l62 336h-87l17 96h286zM1077 739l-80 -432h-109l48 263l-155 -263h-85l-57 263l-49 -263h-109l80 432h138l66 -293l174 293h138z" />
</font>
</defs></svg> 